[Log] TAP version 13 (console.js, line 8037)
[Log] # Long chain (console.js, line 8037)
[Log] ok 1 should be equal (console.js, line 8037)
[Log] Heap: (console.js, line 8019)
[Debug] Long chain: 2882.458ms (bundle.js, line 243)
[Log] Topsort: (console.js, line 8019)
[Debug] Long chain: 9031.022ms (bundle.js, line 249)
[Log] # Long chain, with pruning (console.js, line 8037)
[Log] ok 2 should be equal (console.js, line 8037)
[Log] Heap: (console.js, line 8019)
[Debug] Long chain, with pruning: 1498.988ms (bundle.js, line 243)
[Log] Topsort: (console.js, line 8019)
[Debug] Long chain, with pruning: 7741.957ms (bundle.js, line 249)
[Log] # Wide diamond (console.js, line 8037)
[Log] ok 3 should be equal (console.js, line 8037)
[Log] Heap: (console.js, line 8019)
[Debug] Wide diamond: 3918.749ms (bundle.js, line 243)
[Log] Topsort: (console.js, line 8019)
[Debug] Wide diamond: 4142.064ms (bundle.js, line 249)
[Log] # Wide diamond, double inputs (console.js, line 8037)
[Log] ok 4 should be equal (console.js, line 8037)
[Log] Heap: (console.js, line 8019)
[Debug] Wide diamond, double inputs: 6567.696ms (bundle.js, line 243)
[Log] Topsort: (console.js, line 8019)
[Debug] Wide diamond, double inputs: 4711.356ms (bundle.js, line 249)
[Log] 1..4 (console.js, line 8037)
[Log] # tests 4 (console.js, line 8037)
[Log] # pass  4 (console.js, line 8037)
[Log] # ok (console.js, line 8037)